{
  "compilerOptions": {
    "checkJs": true,
    "module": "es2022",
    "moduleResolution": "node16",
    "target": "es2022"
  },
  "include": ["src", "benchmark"],
  "exclude": ["node_modules", "coverage"]
}
